…
Comment: We have 5 spaghetti plot for mean proportions of different responses. From result it seems that we have same trend and range of value for each response type from 2002-2010 across year.

``` r
devtools::install_github("p8105/p8105.datasets")
```

    ## Skipping install of 'p8105.datasets' from a github remote, the SHA1 (21f5ad1c) has not changed since last install.
    ##   Use `force = TRUE` to force installation

``` r
library(p8105.datasets)
instacart
```

    ## # A tibble: 1,384,617 x 15
    ##    order_id product_id add_to_cart_ord… reordered user_id eval_set
    ##       <int>      <int>            <int>     <int>   <int> <chr>   
    ##  1        1      49302                1         1  112108 train   
    ##  2        1      11109                2         1  112108 train   
    ##  3        1      10246                3         0  112108 train   
    ##  4        1      49683                4         0  112108 train   
    ##  5        1      43633                5         1  112108 train   
    ##  6        1      13176                6         0  112108 train   
    ##  7        1      47209                7         0  112108 train   
    ##  8        1      22035                8         1  112108 train   
    ##  9       36      39612                1         0   79431 train   
    ## 10       36      19660                2         1   79431 train   
    ## # ... with 1,384,607 more rows, and 9 more variables: order_number <int>,
    ## #   order_dow <int>, order_hour_of_day <int>,
    ## #   days_since_prior_order <int>, product_name <chr>, aisle_id <int>,
    ## #   department_id <int>, aisle <chr>, department <chr>
…
    ## [1] 39123

Overview: The dimension of dataset instacart is 1384617\*15=20769255, there is no missing data in instacart. For key variables we are interested in, there are 131209 orders, 131209 users and 39123 products in instacart.

Question 1

``` r
instacart %>% 
  group_by(aisle) %>% 
  summarize(n_item = n()) %>% 
  arrange(desc(n_item))
```

    ## # A tibble: 134 x 2
    ##    aisle                         n_item
    ##    <chr>                          <int>
    ##  1 fresh vegetables              150609
    ##  2 fresh fruits                  150473
    ##  3 packaged vegetables fruits     78493
    ##  4 yogurt                         55240
    ##  5 packaged cheese                41699
    ##  6 water seltzer sparkling water  36617
    ##  7 milk                           32644
    ##  8 chips pretzels                 31269
    ##  9 soy lactosefree                26240
    ## 10 bread                          23635
    ## # ... with 124 more rows
…
Comment: order\_dow represents Sunday=0 to Saturday=6. People order Pink Lady Apples from 11 to 14 on average, it is the time overlap the lunch break. For the Coffee Ice Cream, it is ordered from 13 to 16.

``` r
devtools::install_github("p8105/p8105.datasets")
```

    ## Skipping install of 'p8105.datasets' from a github remote, the SHA1 (21f5ad1c) has not changed since last install.
    ##   Use `force = TRUE` to force installation

``` r
library(p8105.datasets)
ny_noaa
```

    ## # A tibble: 2,595,176 x 7
    ##    id          date        prcp  snow  snwd tmax  tmin 
    ##    <chr>       <date>     <int> <int> <int> <chr> <chr>
    ##  1 US1NYAB0001 2007-11-01    NA    NA    NA <NA>  <NA> 
    ##  2 US1NYAB0001 2007-11-02    NA    NA    NA <NA>  <NA> 
    ##  3 US1NYAB0001 2007-11-03    NA    NA    NA <NA>  <NA> 
    ##  4 US1NYAB0001 2007-11-04    NA    NA    NA <NA>  <NA> 
    ##  5 US1NYAB0001 2007-11-05    NA    NA    NA <NA>  <NA> 
    ##  6 US1NYAB0001 2007-11-06    NA    NA    NA <NA>  <NA> 
    ##  7 US1NYAB0001 2007-11-07    NA    NA    NA <NA>  <NA> 
    ##  8 US1NYAB0001 2007-11-08    NA    NA    NA <NA>  <NA> 
    ##  9 US1NYAB0001 2007-11-09    NA    NA    NA <NA>  <NA> 
    ## 10 US1NYAB0001 2007-11-10    NA    NA    NA <NA>  <NA> 
    ## # ... with 2,595,166 more rows

``` r
ny_noaa %>% 
  group_by(id) %>% 
  summarize(prcp_na = sum(is.na(prcp)),
            snow_na = sum(is.na(snow)),
            snwd_na = sum(is.na(snwd)),
            tmax_na = sum(is.na(tmax)),
            tmin_na = sum(is.na(tmin)))
```

    ## # A tibble: 747 x 6
    ##    id          prcp_na snow_na snwd_na tmax_na tmin_na
    ##    <chr>         <int>   <int>   <int>   <int>   <int>
    ##  1 US1NYAB0001      60     252     874    1157    1157
    ##  2 US1NYAB0006      19     283     703     852     852
    ##  3 US1NYAB0010     220     352     816     822     822
    ##  4 US1NYAB0016      98     152     212     214     214
    ##  5 US1NYAB0017     301     415     459     459     459
    ##  6 US1NYAB0021       2      37      72     365     365
    ##  7 US1NYAB0022     233     238     239     273     273
    ##  8 US1NYAB0023     144     238     289     365     365
    ##  9 US1NYAB0025      40      43      43     215     215
    ## 10 US1NYAL0002      57     245     409     549     549
    ## # ... with 737 more rows

Description: The dimension of ny\_noaa dataset is 2,595,176 x 7, in this dataset we have id, date of observation, precipitation, snowfall in mm, snow depth in mm, maximum temperature and minimum temprature both in degree centigrade on each day across 1981 t0 2010. From result we notice that missing data is a big problem since large proportion of data is missing in ny\_noaa.

Question 1

``` r
ny_noaa1 <- ny_noaa %>% 
  separate(date, into = c("year", "month", "day"), sep = "-") %>% 
  mutate(prcp = prcp / 10,
         tmax = as.numeric(tmax) / 10,
         tmin = as.numeric(tmin) / 10)
  count(ny_noaa, snow) %>% arrange(desc(n))
```

    ## # A tibble: 282 x 2
    ##     snow       n
    ##    <int>   <int>
    ##  1     0 2008508
    ##  2    NA  381221
    ##  3    25   31022
    ##  4    13   23095
    ##  5    51   18274
    ##  6    76   10173
    ##  7     8    9962
    ##  8     5    9748
    ##  9    38    9197
    ## 10     3    8790
    ## # ... with 272 more rows
…
